%YAML 1.1
%TAG !u! tag:unity3d.com,2011:
--- !u!1 &4008264157967721106
GameObject:
  m_ObjectHideFlags: 0
  m_CorrespondingSourceObject: {fileID: 0}
  m_PrefabInstance: {fileID: 0}
  m_PrefabAsset: {fileID: 0}
  serializedVersion: 6
  m_Component:
  - component: {fileID: 4008264157967721105}
  - component: {fileID: 4008264157967721111}
  - component: {fileID: 4008264157967721104}
  - component: {fileID: 1975161188970828490}
  - component: {fileID: 1580354290610972824}
  - component: {fileID: 4457317563734560463}
  - component: {fileID: 968098749770689307}
  m_Layer: 5
  m_Name: LoadingScreen
  m_TagString: Untagged
  m_Icon: {fileID: 0}
  m_NavMeshLayer: 0
  m_StaticEditorFlags: 0
  m_IsActive: 1
--- !u!224 &4008264157967721105
RectTransform:
  m_ObjectHideFlags: 0
  m_CorrespondingSourceObject: {fileID: 0}
  m_PrefabInstance: {fileID: 0}
  m_PrefabAsset: {fileID: 0}
  m_GameObject: {fileID: 4008264157967721106}
  m_LocalRotation: {x: 0, y: 0, z: 0, w: 1}
  m_LocalPosition: {x: 0, y: 0, z: 0}
  m_LocalScale: {x: 1, y: 1, z: 1}
  m_Children:
  - {fileID: 4008264158185257893}
  m_Father: {fileID: 0}
  m_RootOrder: 0
  m_LocalEulerAnglesHint: {x: 0, y: 0, z: 0}
  m_AnchorMin: {x: 0, y: 0}
  m_AnchorMax: {x: 1, y: 1}
  m_AnchoredPosition: {x: 0, y: 0}
  m_SizeDelta: {x: 0, y: 0}
  m_Pivot: {x: 0.5, y: 0.5}
--- !u!222 &4008264157967721111
CanvasRenderer:
  m_ObjectHideFlags: 0
  m_CorrespondingSourceObject: {fileID: 0}
  m_PrefabInstance: {fileID: 0}
  m_PrefabAsset: {fileID: 0}
  m_GameObject: {fileID: 4008264157967721106}
  m_CullTransparentMesh: 0
--- !u!114 &4008264157967721104
MonoBehaviour:
  m_ObjectHideFlags: 0
  m_CorrespondingSourceObject: {fileID: 0}
  m_PrefabInstance: {fileID: 0}
  m_PrefabAsset: {fileID: 0}
  m_GameObject: {fileID: 4008264157967721106}
  m_Enabled: 1
  m_EditorHideFlags: 0
  m_Script: {fileID: 11500000, guid: fe87c0e1cc204ed48ad3b37840f39efc, type: 3}
  m_Name: 
  m_EditorClassIdentifier: 
  m_Material: {fileID: 0}
  m_Color: {r: 0, g: 0, b: 0, a: 0.8352941}
  m_RaycastTarget: 1
  m_RaycastPadding: {x: 0, y: 0, z: 0, w: 0}
  m_Maskable: 1
  m_OnCullStateChanged:
    m_PersistentCalls:
      m_Calls: []
  m_Sprite: {fileID: 0}
  m_Type: 0
  m_PreserveAspect: 0
  m_FillCenter: 1
  m_FillMethod: 4
  m_FillAmount: 1
  m_FillClockwise: 1
  m_FillOrigin: 0
  m_UseSpriteMesh: 0
  m_PixelsPerUnitMultiplier: 1
--- !u!114 &1975161188970828490
MonoBehaviour:
  m_ObjectHideFlags: 0
  m_CorrespondingSourceObject: {fileID: 0}
  m_PrefabInstance: {fileID: 0}
  m_PrefabAsset: {fileID: 0}
  m_GameObject: {fileID: 4008264157967721106}
  m_Enabled: 1
  m_EditorHideFlags: 0
  m_Script: {fileID: 11500000, guid: d8cbdeae5f60b1147ad2c2c79beeb4b8, type: 3}
  m_Name: 
  m_EditorClassIdentifier: 
  textMessage: {fileID: 4008264158185257892}
  progressBar: {fileID: 6274022555459528163}
  onProgressBarPercentage: {fileID: 11400000, guid: f11ff75ed2871bf41baac34b89813b7a,
    type: 2}
  onProgressBarMessage: {fileID: 11400000, guid: afffc457724b26b49a907469fc10d70e,
    type: 2}
  onProgressBarDetailedMessage: {fileID: 11400000, guid: 4b151383a0387674795b089cbc7a143a,
    type: 2}
--- !u!114 &1580354290610972824
MonoBehaviour:
  m_ObjectHideFlags: 0
  m_CorrespondingSourceObject: {fileID: 0}
  m_PrefabInstance: {fileID: 0}
  m_PrefabAsset: {fileID: 0}
  m_GameObject: {fileID: 4008264157967721106}
  m_Enabled: 1
  m_EditorHideFlags: 0
  m_Script: {fileID: 11500000, guid: 5c505de94c194c84796cbdee4b88b119, type: 3}
  m_Name: 
  m_EditorClassIdentifier: 
  styleOnHover: 6
--- !u!114 &4457317563734560463
MonoBehaviour:
  m_ObjectHideFlags: 0
  m_CorrespondingSourceObject: {fileID: 0}
  m_PrefabInstance: {fileID: 0}
  m_PrefabAsset: {fileID: 0}
  m_GameObject: {fileID: 4008264157967721106}
  m_Enabled: 1
  m_EditorHideFlags: 0
  m_Script: {fileID: 11500000, guid: 4e29b1a8efbd4b44bb3f3716e73f07ff, type: 3}
  m_Name: 
  m_EditorClassIdentifier: 
  m_Navigation:
    m_Mode: 3
    m_WrapAround: 0
    m_SelectOnUp: {fileID: 0}
    m_SelectOnDown: {fileID: 0}
    m_SelectOnLeft: {fileID: 0}
    m_SelectOnRight: {fileID: 0}
  m_Transition: 0
  m_Colors:
    m_NormalColor: {r: 1, g: 1, b: 1, a: 1}
    m_HighlightedColor: {r: 0.9607843, g: 0.9607843, b: 0.9607843, a: 1}
    m_PressedColor: {r: 0.78431374, g: 0.78431374, b: 0.78431374, a: 1}
    m_SelectedColor: {r: 0.9607843, g: 0.9607843, b: 0.9607843, a: 1}
    m_DisabledColor: {r: 0.78431374, g: 0.78431374, b: 0.78431374, a: 0.5019608}
    m_ColorMultiplier: 1
    m_FadeDuration: 0.1
  m_SpriteState:
    m_HighlightedSprite: {fileID: 0}
    m_PressedSprite: {fileID: 0}
    m_SelectedSprite: {fileID: 0}
    m_DisabledSprite: {fileID: 0}
  m_AnimationTriggers:
    m_NormalTrigger: Normal
    m_HighlightedTrigger: Highlighted
    m_PressedTrigger: Pressed
    m_SelectedTrigger: Selected
    m_DisabledTrigger: Disabled
  m_Interactable: 1
  m_TargetGraphic: {fileID: 4008264157967721104}
  m_OnClick:
    m_PersistentCalls:
      m_Calls: []
--- !u!223 &968098749770689307
Canvas:
  m_ObjectHideFlags: 0
  m_CorrespondingSourceObject: {fileID: 0}
  m_PrefabInstance: {fileID: 0}
  m_PrefabAsset: {fileID: 0}
  m_GameObject: {fileID: 4008264157967721106}
  m_Enabled: 1
  serializedVersion: 3
  m_RenderMode: 0
  m_Camera: {fileID: 0}
  m_PlaneDistance: 100
  m_PixelPerfect: 0
  m_ReceivesEvents: 1
  m_OverrideSorting: 0
  m_OverridePixelPerfect: 0
  m_SortingBucketNormalizedSize: 0
  m_AdditionalShaderChannelsFlag: 0
  m_SortingLayerID: 0
  m_SortingOrder: 1
  m_TargetDisplay: 0
--- !u!1 &4008264158185257894
GameObject:
  m_ObjectHideFlags: 0
  m_CorrespondingSourceObject: {fileID: 0}
  m_PrefabInstance: {fileID: 0}
  m_PrefabAsset: {fileID: 0}
  serializedVersion: 6
  m_Component:
  - component: {fileID: 4008264158185257893}
  - component: {fileID: 4008264158185257899}
  - component: {fileID: 4008264158185257892}
  m_Layer: 5
  m_Name: Text
  m_TagString: Untagged
  m_Icon: {fileID: 0}
  m_NavMeshLayer: 0
  m_StaticEditorFlags: 0
  m_IsActive: 1
--- !u!224 &4008264158185257893
RectTransform:
  m_ObjectHideFlags: 0
  m_CorrespondingSourceObject: {fileID: 0}
  m_PrefabInstance: {fileID: 0}
  m_PrefabAsset: {fileID: 0}
  m_GameObject: {fileID: 4008264158185257894}
  m_LocalRotation: {x: 0, y: 0, z: 0, w: 1}
  m_LocalPosition: {x: 0, y: 0, z: 0}
  m_LocalScale: {x: 1, y: 1, z: 1}
  m_Children:
  - {fileID: 5732892342871051035}
  m_Father: {fileID: 4008264157967721105}
  m_RootOrder: 0
  m_LocalEulerAnglesHint: {x: 0, y: 0, z: 0}
  m_AnchorMin: {x: 0, y: 0}
  m_AnchorMax: {x: 1, y: 1}
  m_AnchoredPosition: {x: 0, y: 0}
  m_SizeDelta: {x: 0, y: 0}
  m_Pivot: {x: 0.5, y: 0.5}
--- !u!222 &4008264158185257899
CanvasRenderer:
  m_ObjectHideFlags: 0
  m_CorrespondingSourceObject: {fileID: 0}
  m_PrefabInstance: {fileID: 0}
  m_PrefabAsset: {fileID: 0}
  m_GameObject: {fileID: 4008264158185257894}
  m_CullTransparentMesh: 0
--- !u!114 &4008264158185257892
MonoBehaviour:
  m_ObjectHideFlags: 0
  m_CorrespondingSourceObject: {fileID: 0}
  m_PrefabInstance: {fileID: 0}
  m_PrefabAsset: {fileID: 0}
  m_GameObject: {fileID: 4008264158185257894}
  m_Enabled: 1
  m_EditorHideFlags: 0
  m_Script: {fileID: 11500000, guid: 5f7201a12d95ffc409449d95f23cf332, type: 3}
  m_Name: 
  m_EditorClassIdentifier: 
  m_Material: {fileID: 0}
  m_Color: {r: 1, g: 1, b: 1, a: 1}
  m_RaycastTarget: 0
  m_RaycastPadding: {x: 0, y: 0, z: 0, w: 0}
  m_Maskable: 1
  m_OnCullStateChanged:
    m_PersistentCalls:
      m_Calls: []
  m_FontData:
    m_Font: {fileID: 10102, guid: 0000000000000000e000000000000000, type: 0}
    m_FontSize: 18
    m_FontStyle: 0
    m_BestFit: 0
    m_MinSize: 10
    m_MaxSize: 40
    m_Alignment: 4
    m_AlignByGeometry: 0
    m_RichText: 0
    m_HorizontalOverflow: 0
    m_VerticalOverflow: 0
    m_LineSpacing: 1
  m_Text: Large message
--- !u!1001 &8735746452694598881
PrefabInstance:
  m_ObjectHideFlags: 0
  serializedVersion: 2
  m_Modification:
    m_TransformParent: {fileID: 4008264158185257893}
    m_Modifications:
    - target: {fileID: 934387114472175832, guid: 338360f30c1a7ed40be5fd4e1cbf7ed7,
        type: 3}
      propertyPath: m_AnchoredPosition.y
      value: -26
      objectReference: {fileID: 0}
    - target: {fileID: 2092176209769015332, guid: 338360f30c1a7ed40be5fd4e1cbf7ed7,
        type: 3}
      propertyPath: m_Name
      value: ProgressBar
      objectReference: {fileID: 0}
    - target: {fileID: 3935188502541000845, guid: 338360f30c1a7ed40be5fd4e1cbf7ed7,
        type: 3}
      propertyPath: m_FillAmount
      value: 1
      objectReference: {fileID: 0}
    - target: {fileID: 3941995662221987834, guid: 338360f30c1a7ed40be5fd4e1cbf7ed7,
        type: 3}
      propertyPath: m_Pivot.x
      value: 0.5
      objectReference: {fileID: 0}
    - target: {fileID: 3941995662221987834, guid: 338360f30c1a7ed40be5fd4e1cbf7ed7,
        type: 3}
      propertyPath: m_Pivot.y
      value: 0
      objectReference: {fileID: 0}
    - target: {fileID: 3941995662221987834, guid: 338360f30c1a7ed40be5fd4e1cbf7ed7,
        type: 3}
      propertyPath: m_RootOrder
      value: 0
      objectReference: {fileID: 0}
    - target: {fileID: 3941995662221987834, guid: 338360f30c1a7ed40be5fd4e1cbf7ed7,
        type: 3}
      propertyPath: m_AnchorMax.x
      value: 0.5
      objectReference: {fileID: 0}
    - target: {fileID: 3941995662221987834, guid: 338360f30c1a7ed40be5fd4e1cbf7ed7,
        type: 3}
      propertyPath: m_AnchorMax.y
      value: 0.5
      objectReference: {fileID: 0}
    - target: {fileID: 3941995662221987834, guid: 338360f30c1a7ed40be5fd4e1cbf7ed7,
        type: 3}
      propertyPath: m_AnchorMin.x
      value: 0.5
      objectReference: {fileID: 0}
    - target: {fileID: 3941995662221987834, guid: 338360f30c1a7ed40be5fd4e1cbf7ed7,
        type: 3}
      propertyPath: m_AnchorMin.y
      value: 0.5
      objectReference: {fileID: 0}
    - target: {fileID: 3941995662221987834, guid: 338360f30c1a7ed40be5fd4e1cbf7ed7,
        type: 3}
      propertyPath: m_SizeDelta.x
      value: 447
      objectReference: {fileID: 0}
    - target: {fileID: 3941995662221987834, guid: 338360f30c1a7ed40be5fd4e1cbf7ed7,
        type: 3}
      propertyPath: m_SizeDelta.y
      value: 10
      objectReference: {fileID: 0}
    - target: {fileID: 3941995662221987834, guid: 338360f30c1a7ed40be5fd4e1cbf7ed7,
        type: 3}
      propertyPath: m_LocalPosition.x
      value: 0
      objectReference: {fileID: 0}
    - target: {fileID: 3941995662221987834, guid: 338360f30c1a7ed40be5fd4e1cbf7ed7,
        type: 3}
      propertyPath: m_LocalPosition.y
      value: 0
      objectReference: {fileID: 0}
    - target: {fileID: 3941995662221987834, guid: 338360f30c1a7ed40be5fd4e1cbf7ed7,
        type: 3}
      propertyPath: m_LocalPosition.z
      value: 0
      objectReference: {fileID: 0}
    - target: {fileID: 3941995662221987834, guid: 338360f30c1a7ed40be5fd4e1cbf7ed7,
        type: 3}
      propertyPath: m_LocalRotation.w
      value: 1
      objectReference: {fileID: 0}
    - target: {fileID: 3941995662221987834, guid: 338360f30c1a7ed40be5fd4e1cbf7ed7,
        type: 3}
      propertyPath: m_LocalRotation.x
      value: -0
      objectReference: {fileID: 0}
    - target: {fileID: 3941995662221987834, guid: 338360f30c1a7ed40be5fd4e1cbf7ed7,
        type: 3}
      propertyPath: m_LocalRotation.y
      value: -0
      objectReference: {fileID: 0}
    - target: {fileID: 3941995662221987834, guid: 338360f30c1a7ed40be5fd4e1cbf7ed7,
        type: 3}
      propertyPath: m_LocalRotation.z
      value: -0
      objectReference: {fileID: 0}
    - target: {fileID: 3941995662221987834, guid: 338360f30c1a7ed40be5fd4e1cbf7ed7,
        type: 3}
      propertyPath: m_AnchoredPosition.x
      value: 0
      objectReference: {fileID: 0}
    - target: {fileID: 3941995662221987834, guid: 338360f30c1a7ed40be5fd4e1cbf7ed7,
        type: 3}
      propertyPath: m_AnchoredPosition.y
      value: -121
      objectReference: {fileID: 0}
    - target: {fileID: 3941995662221987834, guid: 338360f30c1a7ed40be5fd4e1cbf7ed7,
        type: 3}
      propertyPath: m_LocalEulerAnglesHint.x
      value: 0
      objectReference: {fileID: 0}
    - target: {fileID: 3941995662221987834, guid: 338360f30c1a7ed40be5fd4e1cbf7ed7,
        type: 3}
      propertyPath: m_LocalEulerAnglesHint.y
      value: 0
      objectReference: {fileID: 0}
    - target: {fileID: 3941995662221987834, guid: 338360f30c1a7ed40be5fd4e1cbf7ed7,
        type: 3}
      propertyPath: m_LocalEulerAnglesHint.z
      value: 0
      objectReference: {fileID: 0}
    - target: {fileID: 8824676195672157844, guid: 338360f30c1a7ed40be5fd4e1cbf7ed7,
        type: 3}
      propertyPath: m_Text
      value: Detailed message...
      objectReference: {fileID: 0}
    - target: {fileID: 8824676195672157844, guid: 338360f30c1a7ed40be5fd4e1cbf7ed7,
        type: 3}
      propertyPath: m_Color.b
      value: 1
      objectReference: {fileID: 0}
    - target: {fileID: 8824676195672157844, guid: 338360f30c1a7ed40be5fd4e1cbf7ed7,
        type: 3}
      propertyPath: m_Color.g
      value: 1
      objectReference: {fileID: 0}
    - target: {fileID: 8824676195672157844, guid: 338360f30c1a7ed40be5fd4e1cbf7ed7,
        type: 3}
      propertyPath: m_Color.r
      value: 1
      objectReference: {fileID: 0}
    m_RemovedComponents: []
  m_SourcePrefab: {fileID: 100100000, guid: 338360f30c1a7ed40be5fd4e1cbf7ed7, type: 3}
--- !u!224 &5732892342871051035 stripped
RectTransform:
  m_CorrespondingSourceObject: {fileID: 3941995662221987834, guid: 338360f30c1a7ed40be5fd4e1cbf7ed7,
    type: 3}
  m_PrefabInstance: {fileID: 8735746452694598881}
  m_PrefabAsset: {fileID: 0}
--- !u!114 &6274022555459528163 stripped
MonoBehaviour:
  m_CorrespondingSourceObject: {fileID: 3326565113397879042, guid: 338360f30c1a7ed40be5fd4e1cbf7ed7,
    type: 3}
  m_PrefabInstance: {fileID: 8735746452694598881}
  m_PrefabAsset: {fileID: 0}
  m_GameObject: {fileID: 0}
  m_Enabled: 1
  m_EditorHideFlags: 0
  m_Script: {fileID: 11500000, guid: cd867bc5d8145dd468345df7b4da4cdf, type: 3}
  m_Name: 
  m_EditorClassIdentifier: 
